retail1:RETAIL:Customer:Retail:retail1@test.com:0:0
com1:COMMERCIAL:Customer:Commercial:com1@test.com:0:0
markrep:MARKETREP:Rep:Marketing:markrep@test.com:0:0
custrep:CUSTREP:Rep:Customer:custrep@test.com:0:0
